<?xml version="1.0" encoding="UTF-8" standalone="no"?>
<!-- Created with Inkscape (http://www.inkscape.org/) -->

<svg
   width="30mm"
   height="30mm"
   viewBox="0 0 30 30"
   version="1.1"
   id="svg170825"
   sodipodi:docname="logo-short-square.svg"
   inkscape:version="1.1.1 (3bf5ae0d25, 2021-09-20, custom)"
   xmlns:inkscape="http://www.inkscape.org/namespaces/inkscape"
   xmlns:sodipodi="http://sodipodi.sourceforge.net/DTD/sodipodi-0.dtd"
   xmlns="http://www.w3.org/2000/svg"
   xmlns:svg="http://www.w3.org/2000/svg">
  <sodipodi:namedview
     id="namedview170827"
     pagecolor="#505050"
     bordercolor="#eeeeee"
     borderopacity="1"
     inkscape:pageshadow="0"
     inkscape:pageopacity="0"
     inkscape:pagecheckerboard="0"
     inkscape:document-units="mm"
     showgrid="false"
     inkscape:zoom="5.9223906"
     inkscape:cx="118.95534"
     inkscape:cy="52.597004"
     inkscape:window-width="1920"
     inkscape:window-height="1018"
     inkscape:window-x="1920"
     inkscape:window-y="34"
     inkscape:window-maximized="1"
     inkscape:current-layer="layer1"
     width="30mm" />
  <defs
     id="defs170822" />
  <g
     inkscape:label="Layer 1"
     inkscape:groupmode="layer"
     id="layer1">
    <text
       xml:space="preserve"
       style="font-style:normal;font-weight:normal;font-size:23.2588px;line-height:1.25;font-family:sans-serif;fill:#550000;fill-opacity:1;stroke:none;stroke-width:0.363419"
       x="-1.7943821"
       y="16.57803"
       id="text213999"
       transform="scale(0.97312484,1.0276174)"><tspan
         sodipodi:role="line"
         id="tspan213997"
         style="font-style:normal;font-variant:normal;font-weight:800;font-stretch:normal;font-size:23.2588px;font-family:'Open Sans';-inkscape-font-specification:'Open Sans Ultra-Bold';fill:#550000;stroke-width:0.363419"
         x="-1.7943821"
         y="16.57803">P</tspan></text>
    <text
       xml:space="preserve"
       style="font-style:normal;font-weight:normal;font-size:23.2588px;line-height:1.25;font-family:sans-serif;fill:#005500;fill-opacity:1;stroke:none;stroke-width:0.363419"
       x="8.4166231"
       y="16.57803"
       id="text226701"
       transform="scale(0.97312484,1.0276174)"><tspan
         sodipodi:role="line"
         id="tspan226699"
         style="font-style:normal;font-variant:normal;font-weight:800;font-stretch:normal;font-size:23.2588px;font-family:'Open Sans';-inkscape-font-specification:'Open Sans Ultra-Bold';fill:#005500;stroke-width:0.363419"
         x="8.4166231"
         y="16.57803">W</tspan></text>
    <text
       xml:space="preserve"
       style="font-style:normal;font-weight:normal;font-size:17.3198px;line-height:1.25;font-family:sans-serif;fill:#000055;fill-opacity:1;stroke:none;stroke-width:0.270622"
       x="-1.3361971"
       y="28.726692"
       id="text213987"
       transform="scale(0.95832474,1.0434876)"><tspan
         sodipodi:role="line"
         id="tspan213985"
         style="font-style:normal;font-variant:normal;font-weight:800;font-stretch:normal;font-size:17.3198px;font-family:'Open Sans';-inkscape-font-specification:'Open Sans Ultra-Bold';fill:#000055;stroke-width:0.270622"
         x="-1.3361971"
         y="28.726692">M</tspan></text>
    <text
       xml:space="preserve"
       style="font-style:normal;font-weight:normal;font-size:17.3198px;line-height:1.25;font-family:sans-serif;fill:#000055;fill-opacity:1;stroke:none;stroke-width:0.270622"
       x="11.884417"
       y="28.726692"
       id="text213991"
       transform="scale(0.95832474,1.0434876)"><tspan
         sodipodi:role="line"
         id="tspan213989"
         style="font-style:normal;font-variant:normal;font-weight:800;font-stretch:normal;font-size:17.3198px;font-family:'Open Sans';-inkscape-font-specification:'Open Sans Ultra-Bold';fill:#000055;stroke-width:0.270622"
         x="11.884417"
         y="28.726692">G</tspan></text>
    <text
       xml:space="preserve"
       style="font-style:normal;font-weight:normal;font-size:17.3199px;line-height:1.25;font-family:sans-serif;fill:#000055;fill-opacity:1;stroke:none;stroke-width:0.270623"
       x="20.87517"
       y="28.72673"
       id="text176067"
       transform="scale(0.95832474,1.0434876)"><tspan
         sodipodi:role="line"
         id="tspan176065"
         style="font-style:normal;font-variant:normal;font-weight:800;font-stretch:normal;font-size:17.3199px;font-family:'Open Sans';-inkscape-font-specification:'Open Sans Ultra-Bold';fill:#000055;stroke-width:0.270623"
         x="20.87517"
         y="28.72673">R</tspan></text>
  </g>
</svg>
